/home/marcospc/Documents/facultad/backEnd/backend/src/main/java/py/com/progweb/prueba/rest/tpRest.java
/home/marcospc/Documents/facultad/backEnd/backend/src/main/java/py/com/progweb/prueba/ejb/AgendaDAO.java
/home/marcospc/Documents/facultad/backEnd/backend/src/main/java/py/com/progweb/prueba/ejb/MailDAO.java
/home/marcospc/Documents/facultad/backEnd/backend/src/main/java/py/com/progweb/prueba/model/Agenda.java
/home/marcospc/Documents/facultad/backEnd/backend/src/main/java/py/com/progweb/prueba/model/Concepto.java
/home/marcospc/Documents/facultad/backEnd/backend/src/main/java/py/com/progweb/prueba/model/Bolsa.java
/home/marcospc/Documents/facultad/backEnd/backend/src/main/java/py/com/progweb/prueba/rest/PersonaRest.java
/home/marcospc/Documents/facultad/backEnd/backend/src/main/java/py/com/progweb/prueba/model/ReglaPuntos.java
/home/marcospc/Documents/facultad/backEnd/backend/src/main/java/py/com/progweb/prueba/model/Mail.java
/home/marcospc/Documents/facultad/backEnd/backend/src/main/java/py/com/progweb/prueba/ejb/ReglaPuntosDAO.java
/home/marcospc/Documents/facultad/backEnd/backend/src/main/java/py/com/progweb/prueba/model/Cliente.java
/home/marcospc/Documents/facultad/backEnd/backend/src/main/java/py/com/progweb/prueba/model/Detalle.java
/home/marcospc/Documents/facultad/backEnd/backend/src/main/java/py/com/progweb/prueba/ejb/MailEJB.java
/home/marcospc/Documents/facultad/backEnd/backend/src/main/java/py/com/progweb/prueba/ejb/ClienteDAO.java
/home/marcospc/Documents/facultad/backEnd/backend/src/main/java/py/com/progweb/prueba/ejb/TimerEJB.java
/home/marcospc/Documents/facultad/backEnd/backend/src/main/java/py/com/progweb/prueba/ejb/DetalleDAO.java
/home/marcospc/Documents/facultad/backEnd/backend/src/main/java/py/com/progweb/prueba/model/CabeceraAux.java
/home/marcospc/Documents/facultad/backEnd/backend/src/main/java/py/com/progweb/prueba/ejb/CabeceraDAO.java
/home/marcospc/Documents/facultad/backEnd/backend/src/main/java/py/com/progweb/prueba/model/Persona.java
/home/marcospc/Documents/facultad/backEnd/backend/src/main/java/py/com/progweb/prueba/model/BolsaAux.java
/home/marcospc/Documents/facultad/backEnd/backend/src/main/java/py/com/progweb/prueba/model/ClienteAux.java
/home/marcospc/Documents/facultad/backEnd/backend/src/main/java/py/com/progweb/prueba/rest/ApplicationConfig.java
/home/marcospc/Documents/facultad/backEnd/backend/src/main/java/py/com/progweb/prueba/ejb/BolsaDAO.java
/home/marcospc/Documents/facultad/backEnd/backend/src/main/java/py/com/progweb/prueba/ejb/PersonaDAO.java
/home/marcospc/Documents/facultad/backEnd/backend/src/main/java/py/com/progweb/prueba/model/UsoPuntosAux.java
/home/marcospc/Documents/facultad/backEnd/backend/src/main/java/py/com/progweb/prueba/ejb/ConceptoDAO.java
/home/marcospc/Documents/facultad/backEnd/backend/src/main/java/py/com/progweb/prueba/model/Cabecera.java
